{"count":195,"next_page":null,"page":7,"page_count":7,"per_page":30,"previous_page":"https://eblocker.zendesk.com/api/v2/help_center/de/articles.json?page=6\u0026per_page=30","articles":[{"id":360004400594,"url":"https://eblocker.zendesk.com/api/v2/help_center/de/articles/360004400594-Was-ist-ein-VPN-Netzwerk-.json","html_url":"https://support.eblocker.com/hc/de/articles/360004400594-Was-ist-ein-VPN-Netzwerk-","author_id":116161470334,"comments_disabled":true,"draft":false,"promoted":false,"position":16,"vote_sum":1,"vote_count":3,"section_id":360000956174,"created_at":"2018-05-17T09:03:28Z","updated_at":"2019-04-16T19:52:50Z","name":"Was ist ein VPN-Netzwerk?","title":"Was ist ein VPN-Netzwerk?","source_locale":"en-us","locale":"de","outdated":false,"outdated_locales":[],"edited_at":"2018-05-17T09:03:41Z","user_segment_id":null,"permission_group_id":744634,"label_names":["netzwerk","network","vpn"],"body":"\u003cp\u003eEin Virtuelles Privates Netzwerk (VPN) erweitert ein privates Netzwerk über ein öffentliches Netzwerk und ermöglicht es Benutzern, Daten über das öffentliche Netze zu senden und zu empfangen, als ob ihre Computergeräte direkt mit dem privaten Netzwerk verbunden wären.\u003c/p\u003e"},{"id":360024168734,"url":"https://eblocker.zendesk.com/api/v2/help_center/de/articles/360024168734-Ich-habe-gerade-eine-XYZ-Lizenz-gekauft-Kann-ich-diese-zur%C3%BCckgeben-.json","html_url":"https://support.eblocker.com/hc/de/articles/360024168734-Ich-habe-gerade-eine-XYZ-Lizenz-gekauft-Kann-ich-diese-zur%C3%BCckgeben-","author_id":116161470334,"comments_disabled":true,"draft":false,"promoted":false,"position":17,"vote_sum":1,"vote_count":1,"section_id":360004512333,"created_at":"2019-06-05T08:55:19Z","updated_at":"2019-06-18T14:13:20Z","name":"Ich habe (gerade) eine XYZ Lizenz gekauft. Kann ich diese zurückgeben?","title":"Ich habe (gerade) eine XYZ Lizenz gekauft. Kann ich diese zurückgeben?","source_locale":"de","locale":"de","outdated":false,"outdated_locales":[],"edited_at":"2019-06-05T08:55:19Z","user_segment_id":null,"permission_group_id":744634,"label_names":[],"body":"\u003cp class=\"western\" style=\"margin-bottom: 0in;\"\u003eUpdate-Lizenzen sind leider grundsätzlich von der Rückgabe ausgeschlossen.\u003c/p\u003e"},{"id":360006748834,"url":"https://eblocker.zendesk.com/api/v2/help_center/de/articles/360006748834-Ich-habe-einen-neuen-Router-was-muss-ich-beachten-.json","html_url":"https://support.eblocker.com/hc/de/articles/360006748834-Ich-habe-einen-neuen-Router-was-muss-ich-beachten-","author_id":116161470334,"comments_disabled":true,"draft":false,"promoted":false,"position":17,"vote_sum":0,"vote_count":0,"section_id":360000515213,"created_at":"2018-07-10T09:48:57Z","updated_at":"2018-07-10T09:49:28Z","name":"Ich habe einen neuen Router, was muss ich beachten?","title":"Ich habe einen neuen Router, was muss ich beachten?","source_locale":"en-us","locale":"de","outdated":false,"outdated_locales":[],"edited_at":"2018-07-10T09:49:28Z","user_segment_id":null,"permission_group_id":744634,"label_names":[],"body":"\u003cp\u003eBevor Sie den neuen Router einsetzen, nehmen Sie bitte Folgendes vor:\u003c/p\u003e\n\u003cul\u003e\n\u003cli\u003eBei Ihrem alten Router aktiveren Sie den DHCP-Server im Bereich Einstellungen.\u003c/li\u003e\n\u003cli\u003eBeim eBlocker (Einstellungen \u0026gt; Netzwerk) setzen Sie den Netzwerkmodus auf „automatisch“.\u003c/li\u003e\n\u003c/ul\u003e\n\u003cp\u003eNach Speicherung dieser Änderungen startet Ihr eBlocker neu ­– das dauert ca. fünf Minuten.\u003c/p\u003e\n\u003cp\u003eNun können Sie den alten Router gegen den neuen tauschen. Starten Sie anschließend alle Geräte (auch den eBlocker) einmal neu oder trennen kurz deren die Netzwerkverbindung.\u003c/p\u003e\n\u003cp\u003e\u003cstrong\u003eTipp aus dem Support:\u003c/strong\u003e\u003c/p\u003e\n\u003cp\u003eVoraussichtlich hat Ihr neuer Router andere DHCP-Server-Einstellungen als Ihr alter Router. Daher löschen Sie in den eBlocker Einstellungen im Menü Geräte alle gefundenen Geräte und starten die Suche neu.\u003c/p\u003e"},{"id":360002341253,"url":"https://eblocker.zendesk.com/api/v2/help_center/de/articles/360002341253-eBlocker-Meltdown-Spectre-Information-.json","html_url":"https://support.eblocker.com/hc/de/articles/360002341253-eBlocker-Meltdown-Spectre-Information-","author_id":116161470334,"comments_disabled":true,"draft":false,"promoted":false,"position":17,"vote_sum":0,"vote_count":0,"section_id":360000522734,"created_at":"2018-03-24T15:12:56Z","updated_at":"2018-03-30T17:10:31Z","name":"eBlocker Meltdown \u0026 Spectre Information!","title":"eBlocker Meltdown \u0026 Spectre Information!","source_locale":"en-us","locale":"de","outdated":false,"outdated_locales":[],"edited_at":"2018-03-24T15:17:38Z","user_segment_id":null,"permission_group_id":744634,"label_names":["Meltdown","Spectre"],"body":"\u003cdiv class=\"rollbar-content\" style=\"position: relative; top: 0px; left: 0px; height: auto; overflow: hidden;\"\u003e\n\u003cdiv class=\"modalBlock bottom-nav\"\u003e\n\u003cp\u003e\u003cstrong\u003eIst der eBlocker von dem Meltdown \u0026amp; Spectre Sicherheitsproblem betroffen?\u003c/strong\u003e\u003c/p\u003e\n\u003cp\u003eNein, die eBlocker Prozessoren basieren auf einem Cortex-A7-Kern und sind nicht von dem Meltdown \u0026amp; Spectre Sicherheitsproblem betroffen. \u003c/p\u003e\n\u003cp\u003eQuellen: \u003c/p\u003e\n\u003cp\u003e\u003ca href=\"https://developer.arm.com/support/security-update\"\u003ehttps://developer.arm.com/support/security-update\u003c/a\u003e \u003cbr\u003e\u003ca href=\"http://linux-sunxi.org/H3\"\u003ehttp://linux-sunxi.org/H3\u003c/a\u003e \u003cbr\u003e\u003ca href=\"http://linux-sunxi.org/A31s\"\u003ehttp://linux-sunxi.org/A31s\u003c/a\u003e\u003c/p\u003e\n\u003cp\u003eWer einen DIY eBlocker auf Basis eines Raspberry Pi 2 oder Pi 3 gebaut hat, braucht sich ebenfalls keine Sorgen zu machen. \u003cbr\u003eDer Raspberry Pi 2 und 3 nutzen einen Cortex-A7 und A53 Kern, welche nicht vom Meltdown \u0026amp; Spectre Sicherheitsproblem betroffen sind.\u003c/p\u003e\n\u003cp\u003eQuellen: \u003cbr\u003e\u003ca href=\"https://developer.arm.com/support/security-update\"\u003ehttps://developer.arm.com/support/security-update\u003c/a\u003e \u003cbr\u003e\u003ca href=\"https://en.wikipedia.org/wiki/Raspberry_Pi\"\u003ehttps://en.wikipedia.org/wiki/Raspberry_Pi\u003c/a\u003e\u003c/p\u003e\n\u003c/div\u003e\n\u003c/div\u003e"},{"id":360024168774,"url":"https://eblocker.zendesk.com/api/v2/help_center/de/articles/360024168774-Was-mache-ich-wenn-meine-1-Jahres-Lizenz-Pro-Family-abgelaufen-ist-Kann-ich-eine-Verl%C3%A4ngerung-kaufen-erhalten-.json","html_url":"https://support.eblocker.com/hc/de/articles/360024168774-Was-mache-ich-wenn-meine-1-Jahres-Lizenz-Pro-Family-abgelaufen-ist-Kann-ich-eine-Verl%C3%A4ngerung-kaufen-erhalten-","author_id":116161470334,"comments_disabled":true,"draft":false,"promoted":false,"position":18,"vote_sum":0,"vote_count":0,"section_id":360004512333,"created_at":"2019-06-05T08:55:48Z","updated_at":"2019-06-17T09:35:35Z","name":"Was mache ich, wenn meine 1-Jahres-Lizenz (Pro/Family) abgelaufen ist? Kann ich eine Verlängerung kaufen/erhalten?","title":"Was mache ich, wenn meine 1-Jahres-Lizenz (Pro/Family) abgelaufen ist? Kann ich eine Verlängerung kaufen/erhalten?","source_locale":"de","locale":"de","outdated":false,"outdated_locales":[],"edited_at":"2019-06-05T08:55:48Z","user_segment_id":null,"permission_group_id":744634,"label_names":[],"body":"\u003cp class=\"western\" style=\"margin-bottom: 0in;\"\u003eDer Verkauf ist vollständig eingestellt und Updates werden noch bis zum 30.06.2019 zur Verfügung gestellt.\u003c/p\u003e"},{"id":360006749174,"url":"https://eblocker.zendesk.com/api/v2/help_center/de/articles/360006749174-Ich-habe-einen-neuen-Router-und-erreiche-den-eBlocker-nicht-mehr-.json","html_url":"https://support.eblocker.com/hc/de/articles/360006749174-Ich-habe-einen-neuen-Router-und-erreiche-den-eBlocker-nicht-mehr-","author_id":116161470334,"comments_disabled":true,"draft":false,"promoted":false,"position":18,"vote_sum":0,"vote_count":0,"section_id":360000515213,"created_at":"2018-07-10T09:54:41Z","updated_at":"2018-07-10T09:55:17Z","name":"Ich habe einen neuen Router und erreiche den eBlocker nicht mehr.","title":"Ich habe einen neuen Router und erreiche den eBlocker nicht mehr.","source_locale":"en-us","locale":"de","outdated":false,"outdated_locales":[],"edited_at":"2018-07-10T09:55:17Z","user_segment_id":null,"permission_group_id":744634,"label_names":[],"body":"\u003cp\u003eWenn Sie den alten Router durch einen neuen Router ersetzen, kann es vorkommen, dass Sie den eBlocker nicht mehr erreichen, obwohl die Netzwerk LEDs beim eBlocker leuchten beziehungsweise blinken.\u003c/p\u003e\n\u003cp\u003eEin Grund dafür könnte sein, dass der DHCP-Server Ihres eBlocker aktiviert ist. Dies kollidiert mit dem ebenfalls aktiven DHCP-Server Ihres neuen Routers.\u003c/p\u003e\n\u003cp\u003eIn dem Fall empfehlen wir, den eBlocker in seine Werkseinstellungen zurückzusetzen. \u003cbr\u003eWie das funktioniert, haben wir \u003ca href=\"https://support.eblocker.com/hc/de/articles/360004553934-Auf-Werkseinstellungen-zur%C3%BCcksetzen\"\u003ehier\u003c/a\u003e beschrieben.\u003c/p\u003e"},{"id":360004527793,"url":"https://eblocker.zendesk.com/api/v2/help_center/de/articles/360004527793-Ich-m%C3%B6chte-meinen-eBlocker-verkaufen-.json","html_url":"https://support.eblocker.com/hc/de/articles/360004527793-Ich-m%C3%B6chte-meinen-eBlocker-verkaufen-","author_id":116161470334,"comments_disabled":true,"draft":false,"promoted":false,"position":18,"vote_sum":1,"vote_count":1,"section_id":360000522734,"created_at":"2018-05-18T08:23:36Z","updated_at":"2018-11-02T10:33:08Z","name":"Ich möchte meinen eBlocker verkaufen.","title":"Ich möchte meinen eBlocker verkaufen.","source_locale":"de","locale":"de","outdated":false,"outdated_locales":[],"edited_at":"2018-05-18T08:31:35Z","user_segment_id":null,"permission_group_id":744634,"label_names":["eblocker","sell","verkaufen","Verkaufen"],"body":"\u003cp\u003eWenn Sie den eBlocker weiter verkaufen wollen, empfehlen wir Ihnen folgende Schritte vor dem Versand vorzunehmen:\u003c/p\u003e\n\u003cp\u003e1. Stellen Sie die Werkseinstellungen des eBlockers wieder her.\u003c/p\u003e\n\u003cp\u003eFühren Sie folgende Schritte aus:\u003c/p\u003e\n\u003cul\u003e\n\u003cli\u003eErzeugen Sie eine leere Datei mit dem Namen \"eblocker-factory-reset.txt\" auf dem USB Stick.\u003c/li\u003e\n\u003cli\u003eTrennen Sie den eBlocker vom Strom.\u003c/li\u003e\n\u003cli\u003eSchließen Sie den USB-Stick an dem unteren USB Port des eBlockers an.\u003c/li\u003e\n\u003cli\u003eSchließen Sie den eBlocker an den Strom an.\u003c/li\u003e\n\u003cli\u003eNun werden die Werkseinstellungen wiederhergestellt. Nach ca. 5 Minuten sollte sich der eBlocker wieder abgeschaltet haben (keine LED-Aktivität).\u003c/li\u003e\n\u003cli\u003eEntfernen Sie den USB-Stick.\u003c/li\u003e\n\u003c/ul\u003e\n\u003cp\u003e2. Schreiben Sie uns eine Mail an support@eblocker.com:\u003c/p\u003e\n\u003cp\u003eFolgende Informationen benötigen wir von Ihnen, um den Lizenzschlüssel in unserer Lizenzdatenbank um zuhängen:\u003c/p\u003e\n\u003cul\u003e\n\u003cli\u003eDie ersten drei Blöcke des Lizenzschlüssels.\u003c/li\u003e\n\u003cli\u003eDie Seriennummer Ihres eBlockers (steht unten auf dem eBlocker).\u003c/li\u003e\n\u003cli\u003eIhre Mailadresse, mit der Sie die eBlocker Lizenz aktiviert haben.\u003c/li\u003e\n\u003cli\u003eDie Mailadresse des neuen Besitzers, damit dieser anschließend den eBlocker mit dem Lizenzschlüssel aktivieren kann.\u003c/li\u003e\n\u003c/ul\u003e\n\u003cp\u003eWir werden Sie anschreiben, sobald wir die Lizenz um gehangen haben.\u003c/p\u003e"},{"id":360024341673,"url":"https://eblocker.zendesk.com/api/v2/help_center/de/articles/360024341673-Gibt-es-ein-Sonderk%C3%BCndigungsrecht-f%C3%BCr-mein-Update-Abo-Was-passiert-wenn-ich-k%C3%BCndige-.json","html_url":"https://support.eblocker.com/hc/de/articles/360024341673-Gibt-es-ein-Sonderk%C3%BCndigungsrecht-f%C3%BCr-mein-Update-Abo-Was-passiert-wenn-ich-k%C3%BCndige-","author_id":116161470334,"comments_disabled":true,"draft":false,"promoted":false,"position":19,"vote_sum":1,"vote_count":1,"section_id":360004512333,"created_at":"2019-06-05T08:56:16Z","updated_at":"2019-06-19T20:49:34Z","name":"Gibt es ein „Sonderkündigungsrecht“ für mein Update-Abo? Was passiert, wenn ich kündige?","title":"Gibt es ein „Sonderkündigungsrecht“ für mein Update-Abo? Was passiert, wenn ich kündige?","source_locale":"de","locale":"de","outdated":false,"outdated_locales":[],"edited_at":"2019-06-05T08:56:16Z","user_segment_id":null,"permission_group_id":744634,"label_names":[],"body":"\u003cp class=\"western\" style=\"margin-bottom: 0in;\"\u003eSie können Ihr Abo jederzeit vor Ablauf der Kündigungsfrist kündigen. Sie erhalten dann nur noch Updates solange Ihre Lizenz gültig ist – längstens jedoch bis zum 30.06.2019.\u003c/p\u003e"},{"id":360004527953,"url":"https://eblocker.zendesk.com/api/v2/help_center/de/articles/360004527953-Ich-habe-den-eBlocker-aus-zweiter-Hand-gekauft-.json","html_url":"https://support.eblocker.com/hc/de/articles/360004527953-Ich-habe-den-eBlocker-aus-zweiter-Hand-gekauft-","author_id":116161470334,"comments_disabled":true,"draft":false,"promoted":false,"position":19,"vote_sum":1,"vote_count":1,"section_id":360000522734,"created_at":"2018-05-18T08:26:43Z","updated_at":"2018-06-08T08:38:43Z","name":"Ich habe den eBlocker aus zweiter Hand gekauft.","title":"Ich habe den eBlocker aus zweiter Hand gekauft.","source_locale":"en-us","locale":"de","outdated":false,"outdated_locales":[],"edited_at":"2018-05-18T08:28:13Z","user_segment_id":null,"permission_group_id":744634,"label_names":["eblocker","bought","gekauft","zweiter","hand","second"],"body":"\u003cp\u003eWenn der Verkäufer uns vor dem Kauf kontaktiert hat, sollten Sie Ihren eBlocker ganz normal einrichten können.\u003c/p\u003e\n\u003cp\u003eIst dies nicht geschehen, benötigen wir einige Angaben von Ihnen, damit die eBlocker Lizenz umhängen können.\u003c/p\u003e\n\u003cp\u003eSchreiben Sie uns eine Mail an support@eblocker.com und nennen Sie uns:\u003c/p\u003e\n\u003cul\u003e\n\u003cli\u003eDie ersten drei Blöcke des Lizenzschlüssels.\u003c/li\u003e\n\u003cli\u003eDie Seriennummer Ihres eBlockers (steht unten auf dem eBlocker).\u003c/li\u003e\n\u003cli\u003eDie Mailadresse mit der Sie Ihren eBlocker Lizenzschlüssel aktivieren möchten.\u003c/li\u003e\n\u003c/ul\u003e\n\u003cp\u003eWir werden Sie anschreiben sobald wir die Lizenz um gehangen haben.\u003c/p\u003e\n\u003cp\u003eDanach setzen Sie den eBlocker auf seine Werkseinstellungen zurück.\u003c/p\u003e\n\u003cp\u003eFühren Sie bitte folgende Schritte aus:\u003c/p\u003e\n\u003cul\u003e\n\u003cli\u003eErzeugen Sie eine leere Datei mit dem Namen \"eblocker-factory-reset.txt\" auf dem USB Stick.\u003c/li\u003e\n\u003cli\u003eTrennen Sie den eBlocker vom Strom.\u003c/li\u003e\n\u003cli\u003eSchließen Sie den USB-Stick an dem unteren USB Port des eBlockers an.\u003c/li\u003e\n\u003cli\u003eSchließen Sie den eBlocker an den Strom an.\u003c/li\u003e\n\u003cli\u003eNun werden die Werkseinstellungen wiederhergestellt. Nach ca. 5 Minuten sollte sich der eBlocker wieder abgeschaltet haben (keine LED-Aktivität).\u003c/li\u003e\n\u003cli\u003eEntfernen Sie den USB-Stick.\u003c/li\u003e\n\u003c/ul\u003e\n\u003cp\u003eSchließen Sie Ihren eBlocker nun an Ihren Router an und verbinden den eBlocker mit dem Netzteil. Der Start des eBlockers benötigt ca. 5 Minuten. \u003cbr\u003eDanach rufen Sie in einem Browser die Seite setup.eblocker.com auf und klicken auf dieser Seite oben rechts auf das eBlocker Symbol.\u003cbr\u003eEs öffnet sich nun die Controlbar und Sie können den Aktivierungsassistenten ausführen.\u003c/p\u003e"},{"id":360024168794,"url":"https://eblocker.zendesk.com/api/v2/help_center/de/articles/360024168794-Was-mache-ich-wenn-ich-von-eBlocker-Base-oder-Pro-auf-Pro-oder-Family-wechseln-will-Kann-ich-noch-ein-Lizenz-Upgrade-kaufen-erhalten-.json","html_url":"https://support.eblocker.com/hc/de/articles/360024168794-Was-mache-ich-wenn-ich-von-eBlocker-Base-oder-Pro-auf-Pro-oder-Family-wechseln-will-Kann-ich-noch-ein-Lizenz-Upgrade-kaufen-erhalten-","author_id":116161470334,"comments_disabled":true,"draft":false,"promoted":false,"position":20,"vote_sum":1,"vote_count":1,"section_id":360004512333,"created_at":"2019-06-05T08:56:47Z","updated_at":"2019-06-18T14:13:35Z","name":"Was mache ich, wenn ich von eBlocker Base oder Pro auf Pro oder Family wechseln will? Kann ich noch ein Lizenz-Upgrade kaufen/erhalten?","title":"Was mache ich, wenn ich von eBlocker Base oder Pro auf Pro oder Family wechseln will? Kann ich noch ein Lizenz-Upgrade kaufen/erhalten?","source_locale":"de","locale":"de","outdated":false,"outdated_locales":[],"edited_at":"2019-06-05T08:56:47Z","user_segment_id":null,"permission_group_id":744634,"label_names":[],"body":"\u003cp class=\"western\" style=\"margin-bottom: 0in;\"\u003eDer Verkauf von Update Lizenzen ist eingestellt.\u003c/p\u003e"},{"id":360024341693,"url":"https://eblocker.zendesk.com/api/v2/help_center/de/articles/360024341693-An-wen-kann-ich-mich-bei-technischen-Fragen-oder-im-Garantie-Gew%C3%A4hrleistungsfall-wenden-.json","html_url":"https://support.eblocker.com/hc/de/articles/360024341693-An-wen-kann-ich-mich-bei-technischen-Fragen-oder-im-Garantie-Gew%C3%A4hrleistungsfall-wenden-","author_id":116161470334,"comments_disabled":true,"draft":false,"promoted":false,"position":21,"vote_sum":1,"vote_count":1,"section_id":360004512333,"created_at":"2019-06-05T08:57:14Z","updated_at":"2019-06-19T20:50:07Z","name":"An wen kann ich mich bei technischen Fragen oder im Garantie-/Gewährleistungsfall wenden?","title":"An wen kann ich mich bei technischen Fragen oder im Garantie-/Gewährleistungsfall wenden?","source_locale":"de","locale":"de","outdated":false,"outdated_locales":[],"edited_at":"2019-06-05T08:57:14Z","user_segment_id":null,"permission_group_id":744634,"label_names":[],"body":"\u003cp class=\"western\" style=\"margin-bottom: 0in;\"\u003eSie können sich bis zum 14.06.2019 an unseren Support unter \u003cfont color=\"#0066cc\"\u003e\u003cu\u003e\u003ca href=\"mailto:support@eBlocker.com\"\u003esupport@eBlocker.com\u003c/a\u003e\u003c/u\u003e\u003c/font\u003e wenden.\u003c/p\u003e"},{"id":360024341733,"url":"https://eblocker.zendesk.com/api/v2/help_center/de/articles/360024341733-Kann-ich-den-eBlocker-auch-f%C3%BCr-andere-Zwecke-nutzen-.json","html_url":"https://support.eblocker.com/hc/de/articles/360024341733-Kann-ich-den-eBlocker-auch-f%C3%BCr-andere-Zwecke-nutzen-","author_id":116161470334,"comments_disabled":true,"draft":false,"promoted":false,"position":22,"vote_sum":1,"vote_count":1,"section_id":360004512333,"created_at":"2019-06-05T08:57:52Z","updated_at":"2019-06-19T20:49:09Z","name":"Kann ich den eBlocker auch für andere Zwecke nutzen?","title":"Kann ich den eBlocker auch für andere Zwecke nutzen?","source_locale":"de","locale":"de","outdated":false,"outdated_locales":[],"edited_at":"2019-06-05T08:57:52Z","user_segment_id":null,"permission_group_id":744634,"label_names":[],"body":"\u003cp class=\"western\" style=\"margin-bottom: 0in;\"\u003eDer eBlocker basiert auf einem Standard Single Board Computer Banana PI M2+. Mit entsprechender technischer Kenntnis können Sie diesen Mini-Computer auch für andere Zwecke verwenden.\u003c/p\u003e"},{"id":360024768694,"url":"https://eblocker.zendesk.com/api/v2/help_center/de/articles/360024768694-Kann-ich-Root-Zugang-zum-eBlocker-erhalten-.json","html_url":"https://support.eblocker.com/hc/de/articles/360024768694-Kann-ich-Root-Zugang-zum-eBlocker-erhalten-","author_id":116161470334,"comments_disabled":true,"draft":false,"promoted":false,"position":23,"vote_sum":0,"vote_count":0,"section_id":360004512333,"created_at":"2019-06-17T09:34:36Z","updated_at":"2019-06-17T09:41:55Z","name":"Kann ich Root-Zugang zum eBlocker erhalten?","title":"Kann ich Root-Zugang zum eBlocker erhalten?","source_locale":"de","locale":"de","outdated":false,"outdated_locales":[],"edited_at":"2019-06-17T09:39:31Z","user_segment_id":null,"permission_group_id":744634,"label_names":[],"body":"\u003cp\u003eNein, es gibt kein Root-Passwort. Der Root-Account ist gesperrt.\u003c/p\u003e"},{"id":360024341753,"url":"https://eblocker.zendesk.com/api/v2/help_center/de/articles/360024341753-Wird-es-das-Support-Forum-noch-geben-.json","html_url":"https://support.eblocker.com/hc/de/articles/360024341753-Wird-es-das-Support-Forum-noch-geben-","author_id":116161470334,"comments_disabled":true,"draft":false,"promoted":false,"position":24,"vote_sum":1,"vote_count":1,"section_id":360004512333,"created_at":"2019-06-05T08:58:20Z","updated_at":"2019-06-19T20:49:49Z","name":"Wird es das Support Forum noch geben?","title":"Wird es das Support Forum noch geben?","source_locale":"de","locale":"de","outdated":false,"outdated_locales":[],"edited_at":"2019-06-05T08:58:20Z","user_segment_id":null,"permission_group_id":744634,"label_names":[],"body":"\u003cp class=\"western\" style=\"margin-bottom: 0in;\"\u003eDas Support Forum wird bis zum 30.06.2019 betrieben.\u003c/p\u003e"},{"id":360024341793,"url":"https://eblocker.zendesk.com/api/v2/help_center/de/articles/360024341793-Wird-die-Website-weiter-betrieben-.json","html_url":"https://support.eblocker.com/hc/de/articles/360024341793-Wird-die-Website-weiter-betrieben-","author_id":116161470334,"comments_disabled":true,"draft":false,"promoted":false,"position":25,"vote_sum":0,"vote_count":0,"section_id":360004512333,"created_at":"2019-06-05T08:58:47Z","updated_at":"2019-06-17T09:35:35Z","name":"Wird die Website weiter betrieben?","title":"Wird die Website weiter betrieben?","source_locale":"de","locale":"de","outdated":false,"outdated_locales":[],"edited_at":"2019-06-05T08:58:47Z","user_segment_id":null,"permission_group_id":744634,"label_names":[],"body":"\u003cp class=\"western\" style=\"margin-bottom: 0in;\"\u003eNach dem 30.06.2019 steht die eBlocker Website nicht mehr zur Verfügung.\u003c/p\u003e"}],"sort_by":"position","sort_order":"asc"}